{
  "id": "1cb040bd-f949-497d-8a54-ae3e8d90ee8c",
  "projectId": "9176539b-86bb-4c04-9de1-656d198e1cb2",
  "equipmentId": "c7d6e8a7-9ad8-4805-9c33-cf21a5c039a9",
  "status": "PENDING",
  "requestedBy": "823463c7-6bb5-48b4-8718-6a661558ee73",
  "acceptedBy": null,
  "author": "823463c7-6bb5-48b4-8718-6a661558ee73",
  "category": "427abf88-6918-4b44-8bf8-e104564168aa",
  "locations": {
    "type": "Point",
    "coordinates": [
      49.264323,
      10.2336015
    ]
  },
  "filters": [
    {
      "name": "weight",
      "value": {
        "max": 42000,
        "min": 0
      }
    }
  ],
  "type": "MACHINE",
  "organization": "06a57ce9-58ce-4ae6-a00c-6f4086fddc83",
  "address": "E43, 91637 Wörnitz, Deutschland",
  "startDate": "2021-10-05T06:33:00.000Z",
  "endDate": "2021-10-19T22:00:00.000Z",
  "description": null,
  "prolongDates": [],
  "releaseDates": [],
  "isDummy": false,
  "hasDriver": false,
  "overwriteDate": null,
  "metaInfo": null,
  "warehouseId": null,
  "rentalDescription": null,
  "internalTransportations": {
    "id": "972df8e5-6b10-49c3-ba04-efbad6447ee3",
    "projectRequestId": "1cb040bd-f949-497d-8a54-ae3e8d90ee8c",
    "pickUpDate": "2021-10-04T07:00:00.000Z",
    "deliveryDate": "2021-10-05T07:00:00.000Z",
    "description": null,
    "status": "INITIAL",
    "startDateOption": null,
    "endDateOption": null,
    "pickUpLocation": {
      "type": "Point",
      "coordinates": [
        49.2453983,
        10.2188083
      ]
    },
    "deliveryLocation": {
      "type": "Point",
      "coordinates": [
        49.264323,
        10.2336015
      ]
    },
    "provider": "ffea47b2-13a9-4973-911e-bcdfbdedce6c",
    "pickUpLocationAddress": "Kurzmandl, 91637 Wörnitz, Germany",
    "deliveryLocationAddress": "E43, 91637 Wörnitz, Deutschland",
    "pGroup": "16b1f5b9-ff0e-4c43-bfd5-736f25d5d85f",
    "isOrganizedWithoutSam": null,
    "templatePGroup": "b4652b23-ab2b-45e9-9b47-c73df7bea466",
    "pickUpDateMilliseconds": 1633330800000,
    "deliveryDateMilliseconds": 1633417200000,
    "startDateOptionMilliseconds": null,
    "endDateOptionMilliseconds": null
  },
  "startDateMilliseconds": 1633415580000,
  "endDateMilliseconds": 1634680800000,
  "equipment": {
    "id": "c7d6e8a7-9ad8-4805-9c33-cf21a5c039a9",
    "title": "Bomag BW 100 Kombi AC-5 - Asphaltkolonne",
    "invNumber": "802.0006.719",
    "categoryId": "427abf88-6918-4b44-8bf8-e104564168aa",
    "modelId": "35c160a7-1a18-454b-a2bf-91f35f6c14af",
    "brandId": "54066fd0-3474-4b55-bb59-3610dd87b9a5",
    "year": 2018,
    "specifications": [
      {
        "key": "drum_diameter",
        "value": "0.7"
      },
      {
        "key": "frequency",
        "value": "67"
      },
      {
        "key": "max_travel_speed",
        "value": "10"
      },
      {
        "key": "engine_power",
        "value": "24600"
      },
      {
        "key": "standard_compaction_width",
        "value": "1.072"
      },
      {
        "key": "fuel_type",
        "value": "Diesel"
      },
      {
        "key": "dimensions",
        "value": {
          "H": "2.529",
          "L": "1",
          "W": "1.808"
        }
      }
    ],
    "weight": 2400,
    "additional_specifications": null,
    "structureId": "16b1f5b9-ff0e-4c43-bfd5-736f25d5d85f",
    "organizationId": "06a57ce9-58ce-4ae6-a00c-6f4086fddc83",
    "beaconType": null,
    "beaconId": "DE-2573459",
    "beaconVendor": "rosenberger",
    "RFID": "201910000000000000000217",
    "dailyPrice": null,
    "inactive": null,
    "tag": {
      "date": "2019-12-01",
      "authorName": "",
      "media": []
    },
    "telematicBox": null,
    "createdAt": "2018-02-24T00:00:00.000Z",
    "special_number": null,
    "last_check": "1970-01-01",
    "next_check": "1970-01-01",
    "responsible_person": null,
    "test_type": null,
    "unique_equipment_id": "DE-2573459",
    "bgl_number": "D832 0240",
    "serial_number": null,
    "inventory": null,
    "warehouseId": "58f84c39-8883-46fb-ba9a-70fd2b1d1e0e",
    "trackingTag": null,
    "workingHours": null,
    "navaris_criteria": null,
    "dont_send_to_as400": true,
    "model": {
      "id": "35c160a7-1a18-454b-a2bf-91f35f6c14af",
      "name": "BW 100 AC-5",
      "createdAt": "2021-09-16T01:13:20.000Z",
      "brand": {
        "id": "54066fd0-3474-4b55-bb59-3610dd87b9a5",
        "name": "Bomag",
        "createdAt": "2021-09-16T01:08:19.000Z"
      }
    },
    "brand": {
      "id": "54066fd0-3474-4b55-bb59-3610dd87b9a5",
      "name": "Bomag",
      "createdAt": "2021-09-16T01:08:19.000Z"
    },
    "category": {
      "id": "427abf88-6918-4b44-8bf8-e104564168aa",
      "name": "Combi rollers",
      "name_de": "Kombiwalzen",
      "createdAt": "2021-09-16T01:03:46.766Z",
      "media": []
    },
    "structure": {
      "id": "16b1f5b9-ff0e-4c43-bfd5-736f25d5d85f",
      "name": "Gruppe Augsburg",
      "type": "group",
      "color": "#FF0000"
    },
    "wareHouse": null,
    "equipmentMedia": [
      {
        "id": "5c38745a-98af-4ac0-a118-d9c7101f95b1",
        "name": "c7d6e8a7-9ad8-4805-9c33-cf21a5c039a9.jpg",
        "files": [
          {
            "size": "original",
            "path": "https://cf.sam.strabag.io/media%2Fc7d6e8a7-9ad8-4805-9c33-cf21a5c039a9%2FBOMAG%20BW100.jpg"
          },
          {
            "size": "190x190",
            "path": "https://cf.sam.strabag.io/media%2Fc7d6e8a7-9ad8-4805-9c33-cf21a5c039a9%2F190x190-BOMAG%20BW100.jpg"
          }
        ],
        "type": "image/jpeg",
        "modelId": "c7d6e8a7-9ad8-4805-9c33-cf21a5c039a9",
        "main": true,
        "modelType": "eq-img",
        "createdAt": "2021-08-17T11:27:20.840Z"
      },
      {
        "id": "4d901e16-38a7-4ca7-9092-3cde14b37e21",
        "name": "c7d6e8a7-9ad8-4805-9c33-cf21a5c039a9.jpg",
        "files": [
          {
            "size": "original",
            "path": "https://cf.sam.strabag.io/media%2Fc7d6e8a7-9ad8-4805-9c33-cf21a5c039a9%2FBOMAG%20BW100%20Inv.jpg"
          },
          {
            "size": "190x190",
            "path": "https://cf.sam.strabag.io/media%2Fc7d6e8a7-9ad8-4805-9c33-cf21a5c039a9%2F190x190-BOMAG%20BW100%20Inv.jpg"
          }
        ],
        "type": "image/jpeg",
        "modelId": "c7d6e8a7-9ad8-4805-9c33-cf21a5c039a9",
        "main": false,
        "modelType": "eq-img",
        "createdAt": "2021-08-17T11:27:20.840Z"
      },
      {
        "id": "69c46ade-7717-49f2-bbed-793458ab569b",
        "name": "c7d6e8a7-9ad8-4805-9c33-cf21a5c039a9.jpg",
        "files": [
          {
            "size": "original",
            "path": "https://cf.sam.strabag.io/media%2Fc7d6e8a7-9ad8-4805-9c33-cf21a5c039a9%2FIMG_2200.JPG"
          },
          {
            "size": "190x190",
            "path": "https://cf.sam.strabag.io/media%2Fc7d6e8a7-9ad8-4805-9c33-cf21a5c039a9%2F190x190-IMG_2200.JPG"
          }
        ],
        "type": "image/jpeg",
        "modelId": "c7d6e8a7-9ad8-4805-9c33-cf21a5c039a9",
        "main": false,
        "modelType": "eq-img",
        "createdAt": "2021-08-17T11:27:20.840Z"
      }
    ],
    "telematics": [
      {
        "timestamp": 1634018418000,
        "eventType": "CHECKIN",
        "projectId": "1032a888-53e2-4f5d-8661-8ae2581de69b",
        "equipmentId": "c7d6e8a7-9ad8-4805-9c33-cf21a5c039a9",
        "locationName": "GGZA - Maschinistentage 2020",
        "location": {
          "type": "MultiPolygon",
          "coordinates": [
            [
              [
                [
                  10.330895,
                  48.032767
                ],
                [
                  10.332609,
                  48.032989
                ],
                [
                  10.332796,
                  48.03088
                ],
                [
                  10.331622,
                  48.0306
                ],
                [
                  10.331675,
                  48.029334
                ],
                [
                  10.329068,
                  48.029058
                ],
                [
                  10.328827,
                  48.031458
                ],
                [
                  10.330865,
                  48.032093
                ],
                [
                  10.330895,
                  48.032767
                ]
              ]
            ]
          ]
        },
        "costCenter": "XX RC-KST-DE-802-GGZA",
        "lastLatitude": 48.029462,
        "lastLongitude": 10.329196,
        "lastLatLonPrecise": true,
        "lastAddressByLatLon": "28HH+QM Erkheim, Germany"
      }
    ],
    "isMoving": false
  }
}